Horse Hill Weather
…
names(data) <- varnames

data <- map_dfr(data, 
                   make_table, .id = "varname") 
colnames(data) <- c("varname", "year", month_names)
  
weather <- data %>% select(-Annual) %>%
  pivot_longer(Jan:Dec, names_to = "month") %>%
  mutate(date = lubridate::ymd(paste(year, month, 15))) %>%
  pivot_wider(names_from = varname, values_from = value)

weather

## # A tibble: 132 x 26
##     year month date       temp_f_max temp_f_min temp_f_ave frost_days
##    <dbl> <chr> <date>          <dbl>      <dbl>      <dbl>      <dbl>
##  1  2019 Jan   2019-01-15       68.3       29.8       51.6          3
##  2  2019 Feb   2019-02-15       66.4       29.5       48.3          3
##  3  2019 Mar   2019-03-15       76.8       34.1       52.8          0
##  4  2019 Apr   2019-04-15       88.8       41.6       58.2          0
##  5  2019 May   2019-05-15       78.1       41.2       56.8          0
##  6  2019 June  2019-06-15      102.        44.5       62.9          0
##  7  2019 July  2019-07-15       89.3       48.5       62.4          0
##  8  2019 Aug   2019-08-15       97.3       48.9       65.4          0
##  9  2019 Sept  2019-09-15       99.2       44.1       65.3          0
## 10  2019 Oct   2019-10-15       92.1       34.3       59.5          0
## #  with 122 more rows, and 19 more variables: windchill_f_max <dbl>,
## #   windchill_f_min <dbl>, windchill_f_ave <dbl>, heat_index_f_max <dbl>,
## #   heat_index_f_ave <dbl>, wind_speed_mph_max <dbl>,
## #   wind_speed_mph_ave <dbl>, wind_dir_deg_ave <dbl>,
## #   wind_run_miles <dbl>, pressure_in_hg_max <dbl>,
## #   pressure_in_hg_min <dbl>, pressure_in_hg_ave <dbl>,
## #   precip_in_total <dbl>, rain_days_0_04_in <dbl>, solar_max <dbl>,
## #   solar_ave <dbl>, sun_hrs_total <dbl>, u_v_index_max <dbl>,
## #   u_v_index_ave <dbl>
…
